{
    "name": "Cozy202K",
    "description": "A Discord Theme based on LeoRicharte's concept art",
    "version": "20210202.0.1",
    "author": "Nyria#0001, Tamago-iku, SlippingGitty, Pavol",
    "theme": "Cozy202K.user.css",
    "consent": "false",
    "license": "GPL-3.0"
}
